tmin,tmax,tpmin,tpmax,tp_weather_min,tp_weather_max,lmin,lmax,state_window_min,state_window_max,state_bed_min,state_bed_max,action,fitness,prediction,error,numerosity,experience,time_stamp,action_set_size
09:56,10:56,17,21,20,24,75,95,0.05,0.45,2.16,2.56,0,0.01,0.01,0.01,1,0,0.0,1
09:56,10:56,17,21,20,24,75,95,0.05,0.45,2.16,2.56,1,0.01,0.01,0.01,1,0,0.0,2
09:56,10:56,17,21,20,24,75,95,0.05,0.45,2.16,2.56,2,0.01,0.01,0.01,1,0,0.0,3
09:56,10:56,17,21,20,24,75,95,0.05,0.45,2.16,2.56,3,0.01,0.01,0.01,1,0,0.0,4
09:56,10:56,17,21,20,24,75,95,0.05,0.45,2.16,2.56,4,0.01,0.01,0.01,1,0,0.0,5
09:56,10:56,17,21,20,24,75,95,0.05,0.45,2.16,2.56,5,0.01,0.01,0.01,1,0,0.0,6
09:56,10:56,17,21,20,24,75,95,0.05,0.45,2.16,2.56,6,0.01,0.01,0.01,1,0,0.0,7
09:56,10:56,17,21,20,24,75,95,0.05,0.45,2.16,2.56,7,0.01,0.01,0.01,1,0,0.0,8
